"ID","NUMBER","NAME","USERNAME"
"660","686","6th Avenue Electronics","jeffmorgan"
"29","38","Best Buy","jeffmorgan"
"524","542","Brightstar Corp","jeffmorgan"
"112","121","Dr. Bott LLC","jeffmorgan"
"125","134","Erikson Consumer","jeffmorgan"
"160","169","Hastings","jeffmorgan"
"528","546","MarMaxx","jeffmorgan"
"284","293","Micro Center","jeffmorgan"
"292","301","Mountain View Marketing","jeffmorgan"
"304","313","OCS - Saudi Arabia","jeffmorgan"
"508","526","Petra Industries","jeffmorgan"
"345","354","Ross Stores","jeffmorgan"
"387","396","Target.com","jeffmorgan"
"394","403","Tessco","jeffmorgan"
"440","449","Wal-Mart","jeffmorgan"
"443","452","Walmart.com","jeffmorgan"
"99","108","dd's Discounts","jeffmorgan"
"484","498","Adorama Camera, Inc.","shawnrapier"
"24","33","Barnes & Noble College Booksellers","shawnrapier"
"42","51","Brigham Young University","shawnrapier"
"697","723","Brookstone","shawnrapier"
"700","726","Century Global Colombia","shawnrapier"
"671","697","Coast Guard","shawnrapier"
"644","670","Coast Guard Community Services Command","shawnrapier"
"590","612","College Station ISD","shawnrapier"
"701","727","Cosmotrade Brazil","shawnrapier"
"89","98","D&H Distributing Co.","shawnrapier"
"111","120","Douglas Stewart Company","shawnrapier"
"121","130","El Dorado Trading Group","shawnrapier"
"137","146","Follett Higher Education Group","shawnrapier"
"602","624","Frontline Edelston Group","shawnrapier"
"669","695","Gaston College Bookstore","shawnrapier"
"482","495","HEB Grocery Company","shawnrapier"
"500","517","Johnson County Community College Bookstor","shawnrapier"
"601","623","Kohl's Department Stores","shawnrapier"
"280","289","Meijer","shawnrapier"
"298","307","Navarre","shawnrapier"
"643","669","Navy Exchange Service Command","shawnrapier"
"303","312","Nucourse Distribution, Inc","shawnrapier"
"636","662","Office Depot","shawnrapier"
"657","683","Office Max Inc","shawnrapier"
"699","725","Quintec Chile","shawnrapier"
"698","724","Roca Trade Chile","shawnrapier"
"634","660","Santa Rosa Jr College Bookstore","shawnrapier"
"356","365","Selkie  (Mexico)","shawnrapier"
"628","653","St. Louis Community College","shawnrapier"
"585","607","Superior Communications","shawnrapier"
"408","417","Tribeca Technology Solutions Inc.","shawnrapier"
"635","661","UNC Charlotte","shawnrapier"
"649","675","US Marine Corps","shawnrapier"
"429","438","USMTS","shawnrapier"
"542","561","University of Pittsburgh","shawnrapier"
"651","677","Viastara LLC","shawnrapier"
"466","474","Virginia Tech Bookstore","shawnrapier"
"444","453","Washburn University Bookstore","shawnrapier"
"470","483","Weber State University","shawnrapier"
"453","462","Wynit","shawnrapier"
"7","16","ADEAL Pty Ltd.","tuck"
"23","32","Ban Leong Technologies Ltd (Singapore)","tuck"
"539","558","CSI Intertrade Co., Ltd.","tuck"
"106","115","Digitalblue New Zealand Limited","tuck"
"144","153","Gammatek S.A. (South Africa)","tuck"
"578","600","IntelliTech Elecronics Ent. Ltd.","tuck"
"150","159","Jcordon Commercial Corporation","tuck"
"519","537","KNC Media Technology (Korea)","tuck"
"658","684","Lava","tuck"
"600","622","Three-Quest","tuck"